\relax 
\citation{roselli2000comparison}
\citation{Hadoop:2012:Online}
\citation{ross2006high}
\citation{newman2008hpcs}
\citation{Hadoop:2012:Online}
\citation{MooseFS:2012:Online}
\citation{pvfs:2012:Online}
\citation{welch2008scalable}
\citation{Lustre:2009:Online}
\citation{thomson2015calvinfs}
\citation{lamport2001paxos}
\citation{Doe:2012:Online}
\citation{weil2006ceph}
\citation{lakshman2010cassandra}
\citation{douceur2006distributed}
\citation{Doe:2012:Online}
\@writefile{toc}{\contentsline {section}{\numberline {I}Introduction}{1}}
\citation{radia2010scaling}
\citation{Cnode:2009:Online}
\citation{lamport2001paxos}
\citation{gray1978notes}
\citation{ongaro2014search}
\citation{junqueira2011zab}
\citation{ren2014indexfs}
\citation{patil2011scale}
\citation{thomson2015calvinfs}
\citation{xiao2015shardfs}
\citation{xiao2015shardfs}
\citation{george2011hbase}
\citation{brandt2003efficient}
\citation{weil2006ceph}
\citation{douceur2006distributed}
\@writefile{toc}{\contentsline {section}{\numberline {II}Related work}{2}}
\@writefile{toc}{\contentsline {section}{\numberline {III}Design and implenment}{2}}
\citation{douceur2006distributed}
\citation{weil2006ceph}
\citation{mitzenmacher2001power}
\@writefile{lof}{\contentsline {figure}{\numberline {1}{\ignorespaces The life of an operation}}{3}}
\@writefile{toc}{\contentsline {subsection}{\numberline {\unhbox \voidb@x \hbox {III-A}} Dynamic Namespace Partitioning}{3}}
\@writefile{lof}{\contentsline {figure}{\numberline {2}{\ignorespaces The figure shows how Hpfms distributes a file system directory tree evenly into two metadata servers. Dynamic partioning makes every namenode has two sub-tree to serve lastly.}}{3}}
\@writefile{toc}{\contentsline {subsection}{\numberline {\unhbox \voidb@x \hbox {III-B}}Evaluation System}{4}}
\@writefile{lof}{\contentsline {figure}{\numberline {3}{\ignorespaces The exzample of access history used by calculating real result of each read operation.}}{4}}
\@writefile{lof}{\contentsline {figure}{\numberline {4}{\ignorespaces The figure shows how Hpfms obtain real result from access history.The red line represents the total error of the return value and the blue line represents the correct}}{4}}
\@writefile{lof}{\contentsline {figure}{\numberline {5}{\ignorespaces $y={\begingroup 1\endgroup \over 1+e^{-x}}$}}{4}}
\@writefile{lof}{\contentsline {figure}{\numberline {6}{\ignorespaces The exzample of access history used by calculating read frequency,write frequency,the interval of last update time and real result of each read operation.}}{4}}
\citation{Doe:2012:Online}
\bibstyle{IEEEtran}
\bibdata{reference}
\@writefile{toc}{\contentsline {subsection}{\numberline {\unhbox \voidb@x \hbox {III-C}}Namenode Communication}{5}}
\@writefile{toc}{\contentsline {section}{\numberline {IV}EXPERIMENTAL EVALUATION}{5}}
\@writefile{toc}{\contentsline {section}{\numberline {V}Conclusion}{5}}
